1-ELE/QUARTUS/Projects/Ex3_UART_RTX/simulation/qsim/UART_RTX.msim.vcd
$comment
	File created using the following command:
		vcd file UART_RTX.msim.vcd -direction
$end
$date
	Mon Apr 13 17:51:10 2020
$end
$version
	ModelSim Version 10.5b
$end
$timescale
	1ps
$end

$scope module uart_rtx_vhd_vec_tst $end
$var wire 1 ! BTN [1] $end
$var wire 1 " BTN [0] $end
$var wire 1 # CLK $end
$var wire 1 $ LED [9] $end
$var wire 1 % LED [8] $end
$var wire 1 & LED [7] $end
$var wire 1 ' LED [6] $end
$var wire 1 ( LED [5] $end
$var wire 1 ) LED [4] $end
$var wire 1 * LED [3] $end
$var wire 1 + LED [2] $end
$var wire 1 , LED [1] $end
$var wire 1 - LED [0] $end
$var wire 1 . RXL $end
$var wire 1 / SWT $end
$var wire 1 0 TXL $end

$scope module i1 $end
$var wire 1 1 gnd $end
$var wire 1 2 vcc $end
$var wire 1 3 unknown $end
$var wire 1 4 devoe $end
$var wire 1 5 devclrn $end
$var wire 1 6 devpor $end
$var wire 1 7 ww_devoe $end
$var wire 1 8 ww_devclrn $end
$var wire 1 9 ww_devpor $end
$var wire 1 : ww_CLK $end
$var wire 1 ; ww_RXL $end
$var wire 1 < ww_BTN [1] $end
$var wire 1 = ww_BTN [0] $end
$var wire 1 > ww_SWT $end
$var wire 1 ? ww_LED [9] $end
$var wire 1 @ ww_LED [8] $end
$var wire 1 A ww_LED [7] $end
$var wire 1 B ww_LED [6] $end
$var wire 1 C ww_LED [5] $end
$var wire 1 D ww_LED [4] $end
$var wire 1 E ww_LED [3] $end
$var wire 1 F ww_LED [2] $end
$var wire 1 G ww_LED [1] $end
$var wire 1 H ww_LED [0] $end
$var wire 1 I ww_TXL $end
$var wire 1 J \~QUARTUS_CREATED_ADC1~_CHSEL_bus\ [4] $end
$var wire 1 K \~QUARTUS_CREATED_ADC1~_CHSEL_bus\ [3] $end
$var wire 1 L \~QUARTUS_CREATED_ADC1~_CHSEL_bus\ [2] $end
$var wire 1 M \~QUARTUS_CREATED_ADC1~_CHSEL_bus\ [1] $end
$var wire 1 N \~QUARTUS_CREATED_ADC1~_CHSEL_bus\ [0] $end
$var wire 1 O \~QUARTUS_CREATED_ADC2~_CHSEL_bus\ [4] $end
$var wire 1 P \~QUARTUS_CREATED_ADC2~_CHSEL_bus\ [3] $end
$var wire 1 Q \~QUARTUS_CREATED_ADC2~_CHSEL_bus\ [2] $end
$var wire 1 R \~QUARTUS_CREATED_ADC2~_CHSEL_bus\ [1] $end
$var wire 1 S \~QUARTUS_CREATED_ADC2~_CHSEL_bus\ [0] $end
$var wire 1 T \ClkTxUART~clkctrl_INCLK_bus\ [3] $end
$var wire 1 U \ClkTxUART~clkctrl_INCLK_bus\ [2] $end
$var wire 1 V \ClkTxUART~clkctrl_INCLK_bus\ [1] $end
$var wire 1 W \ClkTxUART~clkctrl_INCLK_bus\ [0] $end
$var wire 1 X \CLK~inputclkctrl_INCLK_bus\ [3] $end
$var wire 1 Y \CLK~inputclkctrl_INCLK_bus\ [2] $end
$var wire 1 Z \CLK~inputclkctrl_INCLK_bus\ [1] $end
$var wire 1 [ \CLK~inputclkctrl_INCLK_bus\ [0] $end
$var wire 1 \ \~QUARTUS_CREATED_GND~I_combout\ $end
$var wire 1 ] \~QUARTUS_CREATED_UNVM~~busy\ $end
$var wire 1 ^ \~QUARTUS_CREATED_ADC1~~eoc\ $end
$var wire 1 _ \~QUARTUS_CREATED_ADC2~~eoc\ $end
$var wire 1 ` \LED[8]~output_o\ $end
$var wire 1 a \LED[9]~output_o\ $end
$var wire 1 b \LED[0]~output_o\ $end
$var wire 1 c \LED[1]~output_o\ $end
$var wire 1 d \LED[2]~output_o\ $end
$var wire 1 e \LED[3]~output_o\ $end
$var wire 1 f \LED[4]~output_o\ $end
$var wire 1 g \LED[5]~output_o\ $end
$var wire 1 h \LED[6]~output_o\ $end
$var wire 1 i \LED[7]~output_o\ $end
$var wire 1 j \TXL~output_o\ $end
$var wire 1 k \CLK~input_o\ $end
$var wire 1 l \CLK~inputclkctrl_outclk\ $end
$var wire 1 m \NxCntRxUART[1]~3_combout\ $end
$var wire 1 n \NxCntRxUART[2]~0_combout\ $end
$var wire 1 o \NxCntRxUART[2]~1_combout\ $end
$var wire 1 p \Equal7~0_combout\ $end
$var wire 1 q \CntRxUART[0]~0_combout\ $end
$var wire 1 r \CntRxUART[0]~1_combout\ $end
$var wire 1 s \NxCntRxUART[0]~2_combout\ $end
$var wire 1 t \Equal12~0_combout\ $end
$var wire 1 u \RXL~input_o\ $end
$var wire 1 v \RxSt~0_combout\ $end
$var wire 1 w \RxSt~1_combout\ $end
$var wire 1 x \BTN[1]~input_o\ $end
$var wire 1 y \RxSt~2_combout\ $end
$var wire 1 z \RxSt~3_combout\ $end
$var wire 1 { \RxParBit~0_combout\ $end
$var wire 1 | \RxParBit~1_combout\ $end
$var wire 1 } \RxParBit~2_combout\ $end
$var wire 1 ~ \RxParBit~q\ $end
$var wire 1 !! \RxSt~4_combout\ $end
$var wire 1 "! \RxFrIdx~2_combout\ $end
$var wire 1 #! \RxFrIdx~8_combout\ $end
$var wire 1 $! \RxFrIdx[0]~4_combout\ $end
$var wire 1 %! \RxFrIdx[0]~5_combout\ $end
$var wire 1 &! \RxFrIdx[0]~6_combout\ $end
$var wire 1 '! \RxFrIdx[0]~7_combout\ $end
$var wire 1 (! \RxFrIdx~3_combout\ $end
$var wire 1 )! \Equal13~0_combout\ $end
$var wire 1 *! \RxFrIdx[0]~1_combout\ $end
$var wire 1 +! \RxSt~5_combout\ $end
$var wire 1 ,! \RxFrIdx[0]~0_combout\ $end
$var wire 1 -! \RxSt~10_combout\ $end
$var wire 1 .! \RxSt~6_combout\ $end
$var wire 1 /! \RxBitIdx~0_combout\ $end
$var wire 1 0! \RxBitIdx~4_combout\ $end
$var wire 1 1! \RxBitIdx~3_combout\ $end
$var wire 1 2! \RxBitIdx~1_combout\ $end
$var wire 1 3! \RxBitIdx~2_combout\ $end
$var wire 1 4! \RxSt~7_combout\ $end
$var wire 1 5! \RxSt~8_combout\ $end
$var wire 1 6! \RxSt~9_combout\ $end
$var wire 1 7! \RxSt~11_combout\ $end
$var wire 1 8! \UpLeds~0_combout\ $end
$var wire 1 9! \NxRxParBit~0_combout\ $end
$var wire 1 :! \RxBuf[2][1]~2_combout\ $end
$var wire 1 ;! \RxBuf[2][1]~28_combout\ $end
$var wire 1 <! \RxBuf[2][1]~29_combout\ $end
$var wire 1 =! \RxBuf[2][1]~q\ $end
$var wire 1 >! \RxBuf[0][1]~3_combout\ $end
$var wire 1 ?! \RxBuf[0][1]~4_combout\ $end
$var wire 1 @! \RxBuf[0][1]~q\ $end
$var wire 1 A! \RxBuf[2][0]~0_combout\ $end
$var wire 1 B! \RxBuf[2][0]~30_combout\ $end
$var wire 1 C! \RxBuf[2][0]~q\ $end
$var wire 1 D! \Decoder0~0_combout\ $end
$var wire 1 E! \RxBuf[0][0]~1_combout\ $end
$var wire 1 F! \RxBuf[0][0]~q\ $end
$var wire 1 G! \UpLeds~7_combout\ $end
$var wire 1 H! \RxBuf[2][7]~15_combout\ $end
$var wire 1 I! \RxBuf[2][7]~26_combout\ $end
$var wire 1 J! \RxBuf[2][7]~q\ $end
$var wire 1 K! \RxBuf[0][7]~16_combout\ $end
$var wire 1 L! \RxBuf[0][7]~q\ $end
$var wire 1 M! \RxBuf[2][6]~13_combout\ $end
$var wire 1 N! \RxBuf[0][6]~14_combout\ $end
$var wire 1 O! \RxBuf[0][6]~q\ $end
$var wire 1 P! \RxBuf[2][6]~27_combout\ $end
$var wire 1 Q! \RxBuf[2][6]~q\ $end
$var wire 1 R! \UpLeds~6_combout\ $end
$var wire 1 S! \RxBuf[2][5]~11_combout\ $end
$var wire 1 T! \RxBuf[0][5]~12_combout\ $end
$var wire 1 U! \RxBuf[0][5]~q\ $end
$var wire 1 V! \RxBuf[2][4]~9_combout\ $end
$var wire 1 W! \RxBuf[2][4]~34_combout\ $end
$var wire 1 X! \RxBuf[2][4]~q\ $end
$var wire 1 Y! \RxBuf[2][5]~33_combout\ $end
$var wire 1 Z! \RxBuf[2][5]~q\ $end
$var wire 1 [! \RxBuf[0][4]~10_combout\ $end
$var wire 1 \! \RxBuf[0][4]~q\ $end
$var wire 1 ]! \UpLeds~9_combout\ $end
$var wire 1 ^! \UpLeds~10_combout\ $end
$var wire 1 _! \RxBuf[2][3]~7_combout\ $end
$var wire 1 `! \RxBuf[2][3]~31_combout\ $end
$var wire 1 a! \RxBuf[2][3]~q\ $end
$var wire 1 b! \RxBuf[2][2]~5_combout\ $end
$var wire 1 c! \RxBuf[0][2]~6_combout\ $end
$var wire 1 d! \RxBuf[0][2]~q\ $end
$var wire 1 e! \RxBuf[0][3]~8_combout\ $end
$var wire 1 f! \RxBuf[0][3]~q\ $end
$var wire 1 g! \RxBuf[2][2]~32_combout\ $end
$var wire 1 h! \RxBuf[2][2]~q\ $end
$var wire 1 i! \UpLeds~8_combout\ $end
$var wire 1 j! \UpLeds~11_combout\ $end
$var wire 1 k! \RxBuf[1][1]~17_combout\ $end
$var wire 1 l! \RxBuf[1][1]~18_combout\ $end
$var wire 1 m! \RxBuf[1][1]~q\ $end
$var wire 1 n! \Decoder0~1_combout\ $end
$var wire 1 o! \RxBuf[1][0]~19_combout\ $end
$var wire 1 p! \RxBuf[1][0]~q\ $end
$var wire 1 q! \UpLeds~1_combout\ $end
$var wire 1 r! \RxBuf[1][4]~23_combout\ $end
$var wire 1 s! \RxBuf[1][4]~q\ $end
$var wire 1 t! \RxBuf[1][5]~22_combout\ $end
$var wire 1 u! \RxBuf[1][5]~q\ $end
$var wire 1 v! \UpLeds~3_combout\ $end
$var wire 1 w! \RxBuf[1][6]~25_combout\ $end
$var wire 1 x! \RxBuf[1][6]~q\ $end
$var wire 1 y! \RxBuf[1][7]~24_combout\ $end
$var wire 1 z! \RxBuf[1][7]~q\ $end
$var wire 1 {! \UpLeds~4_combout\ $end
$var wire 1 |! \RxBuf[1][3]~20_combout\ $end
$var wire 1 }! \RxBuf[1][3]~q\ $end
$var wire 1 ~! \RxBuf[1][2]~21_combout\ $end
$var wire 1 !" \RxBuf[1][2]~q\ $end
$var wire 1 "" \UpLeds~2_combout\ $end
$var wire 1 #" \UpLeds~5_combout\ $end
$var wire 1 $" \UpLeds~12_combout\ $end
$var wire 1 %" \UpLeds~q\ $end
$var wire 1 &" \LED~1_combout\ $end
$var wire 1 '" \LED~2_combout\ $end
$var wire 1 (" \LED~3_combout\ $end
$var wire 1 )" \LED~4_combout\ $end
$var wire 1 *" \LED~5_combout\ $end
$var wire 1 +" \LED~6_combout\ $end
$var wire 1 ," \LED~7_combout\ $end
$var wire 1 -" \LED~8_combout\ $end
$var wire 1 ." \Add0~0_combout\ $end
$var wire 1 /" \Add0~1\ $end
$var wire 1 0" \Add0~2_combout\ $end
$var wire 1 1" \NxCntTxUART[1]~5_combout\ $end
$var wire 1 2" \Add0~3\ $end
$var wire 1 3" \Add0~4_combout\ $end
$var wire 1 4" \Add0~5\ $end
$var wire 1 5" \Add0~6_combout\ $end
$var wire 1 6" \NxCntTxUART[3]~4_combout\ $end
$var wire 1 7" \Equal0~1_combout\ $end
$var wire 1 8" \Add0~7\ $end
$var wire 1 9" \Add0~8_combout\ $end
$var wire 1 :" \NxCntTxUART[4]~3_combout\ $end
$var wire 1 ;" \Add0~9\ $end
$var wire 1 <" \Add0~10_combout\ $end
$var wire 1 =" \NxCntTxUART[5]~2_combout\ $end
$var wire 1 >" \Add0~11\ $end
$var wire 1 ?" \Add0~12_combout\ $end
$var wire 1 @" \NxCntTxUART[6]~1_combout\ $end
$var wire 1 A" \Add0~13\ $end
$var wire 1 B" \Add0~14_combout\ $end
$var wire 1 C" \NxCntTxUART[7]~0_combout\ $end
$var wire 1 D" \Equal0~0_combout\ $end
$var wire 1 E" \ClkTxUART~0_combout\ $end
$var wire 1 F" \ClkTxUART~q\ $end
$var wire 1 G" \ClkTxUART~clkctrl_outclk\ $end
$var wire 1 H" \BTN[0]~input_o\ $end
$var wire 1 I" \Pushed~0_combout\ $end
$var wire 1 J" \Pushed~q\ $end
$var wire 1 K" \TxOvBitIdx[0]~6_combout\ $end
$var wire 1 L" \TxOvBitIdx[4]~15\ $end
$var wire 1 M" \TxOvBitIdx[5]~16_combout\ $end
$var wire 1 N" \Equal1~0_combout\ $end
$var wire 1 O" \Message_Handler~0_combout\ $end
$var wire 1 P" \TxOvBitIdx[0]~7\ $end
$var wire 1 Q" \TxOvBitIdx[1]~8_combout\ $end
$var wire 1 R" \TxOvBitIdx[1]~9\ $end
$var wire 1 S" \TxOvBitIdx[2]~10_combout\ $end
$var wire 1 T" \TxOvBitIdx[2]~11\ $end
$var wire 1 U" \TxOvBitIdx[3]~12_combout\ $end
$var wire 1 V" \TxOvBitIdx[3]~13\ $end
$var wire 1 W" \TxOvBitIdx[4]~14_combout\ $end
$var wire 1 X" \Reset_Handler~0_combout\ $end
$var wire 1 Y" \Reset_Handler~1_combout\ $end
$var wire 1 Z" \Reset_Handler~2_combout\ $end
$var wire 1 [" \ResetTx~q\ $end
$var wire 1 \" \NxTxBitIdx[0]~1_combout\ $end
$var wire 1 ]" \TxBitIdx[0]~0_combout\ $end
$var wire 1 ^" \NxTxBitIdx[1]~0_combout\ $end
$var wire 1 _" \NxTxBitIdx[2]~3_combout\ $end
$var wire 1 `" \Add3~0_combout\ $end
$var wire 1 a" \NxTxBitIdx[3]~2_combout\ $end
$var wire 1 b" \Equal2~0_combout\ $end
$var wire 1 c" \Equal4~0_combout\ $end
$var wire 1 d" \SWT~input_o\ $end
$var wire 1 e" \TxLine~0_combout\ $end
$var wire 1 f" \NxTxFrIdx[0]~1_combout\ $end
$var wire 1 g" \NxTxFrIdx[1]~0_combout\ $end
$var wire 1 h" \Mux3~2_combout\ $end
$var wire 1 i" \Mux3~3_combout\ $end
$var wire 1 j" \Mux3~4_combout\ $end
$var wire 1 k" \TxLine~1_combout\ $end
$var wire 1 l" \Equal3~0_combout\ $end
$var wire 1 m" \NxTxParBit~1_combout\ $end
$var wire 1 n" \NxTxParBit~0_combout\ $end
$var wire 1 o" \NxTxParBit~2_combout\ $end
$var wire 1 p" \TxParBit~q\ $end
$var wire 1 q" \TxLine~2_combout\ $end
$var wire 1 r" \TxLine~3_combout\ $end
$var wire 1 s" TxOvBitIdx [5] $end
$var wire 1 t" TxOvBitIdx [4] $end
$var wire 1 u" TxOvBitIdx [3] $end
$var wire 1 v" TxOvBitIdx [2] $end
$var wire 1 w" TxOvBitIdx [1] $end
$var wire 1 x" TxOvBitIdx [0] $end
$var wire 1 y" TxBitIdx [3] $end
$var wire 1 z" TxBitIdx [2] $end
$var wire 1 {" TxBitIdx [1] $end
$var wire 1 |" TxBitIdx [0] $end
$var wire 1 }" TxFrIdx [1] $end
$var wire 1 ~" TxFrIdx [0] $end
$var wire 1 !# CntTxUART [7] $end
$var wire 1 "# CntTxUART [6] $end
$var wire 1 ## CntTxUART [5] $end
$var wire 1 $# CntTxUART [4] $end
$var wire 1 %# CntTxUART [3] $end
$var wire 1 &# CntTxUART [2] $end
$var wire 1 '# CntTxUART [1] $end
$var wire 1 (# CntTxUART [0] $end
$var wire 1 )# RxSt [2] $end
$var wire 1 *# RxSt [1] $end
$var wire 1 +# RxSt [0] $end
$var wire 1 ,# RxFrIdx [1] $end
$var wire 1 -# RxFrIdx [0] $end
$var wire 1 .# CntRxUART [2] $end
$var wire 1 /# CntRxUART [1] $end
$var wire 1 0# CntRxUART [0] $end
$var wire 1 1# RxBitIdx [2] $end
$var wire 1 2# RxBitIdx [1] $end
$var wire 1 3# RxBitIdx [0] $end
$var wire 1 4# \ALT_INV_TxLine~3_combout\ $end
$upscope $end
$upscope $end
$enddefinitions $end
#0
$dumpvars
0#
1.
x/
00
01
12
x3
14
15
16
17
18
19
0:
1;
x>
0I
0\
z]
z^
z_
z`
za
1b
1c
1d
1e
1f
1g
1h
1i
0j
0k
0l
0m
0n
0o
1p
0q
0r
0s
0t
1u
0v
0w
1x
0y
0z
1{
0|
0}
0~
0!!
0"!
0#!
1$!
1%!
0&!
0'!
0(!
0)!
0*!
0+!
0,!
0-!
0.!
0/!
00!
01!
02!
03!
04!
05!
06!
07!
08!
09!
0:!
0;!
0<!
0=!
1>!
0?!
0@!
0A!
0B!
0C!
0D!
0E!
0F!
1G!
0H!
0I!
0J!
0K!
0L!
0M!
0N!
0O!
0P!
0Q!
1R!
0S!
0T!
0U!
0V!
0W!
0X!
0Y!
0Z!
0[!
0\!
1]!
0^!
0_!
0`!
0a!
0b!
0c!
0d!
0e!
0f!
0g!
0h!
1i!
0j!
0k!
0l!
0m!
0n!
0o!
0p!
1q!
0r!
0s!
0t!
0u!
1v!
0w!
0x!
0y!
0z!
1{!
0|!
0}!
0~!
0!"
1""
1#"
0$"
0%"
1&"
1'"
1("
1)"
1*"
1+"
1,"
1-"
1."
0/"
00"
01"
12"
03"
04"
05"
06"
07"
18"
09"
0:"
0;"
0<"
0="
1>"
0?"
0@"
0A"
0B"
0C"
0D"
0E"
0F"
0G"
xH"
xI"
0J"
1K"
0L"
0M"
0N"
1O"
0P"
0Q"
1R"
0S"
0T"
0U"
1V"
0W"
1X"
0Y"
xZ"
0["
0\"
1]"
0^"
0_"
0`"
0a"
1b"
0c"
xd"
0e"
0f"
0g"
1h"
0i"
1j"
0k"
1l"
0m"
1n"
0o"
0p"
0q"
1r"
04#
1!
x"
z$
z%
1&
1'
1(
1)
1*
1+
1,
1-
1<
x=
z?
z@
1A
1B
1C
1D
1E
1F
1G
1H
0s"
0t"
0u"
0v"
0w"
0x"
0y"
0z"
0{"
0|"
0}"
0~"
0!#
0"#
0##
0$#
0%#
0&#
0'#
0(#
0)#
0*#
0+#
0,#
0-#
0.#
0/#
00#
01#
02#
03#
1X
1Y
1Z
0[
1T
1U
1V
0W
0J
0K
0L
0M
0N
0O
0P
0Q
0R
0S
$end
#10000
1#
1:
1k
1[
1l
1(#
0."
1/"
10"
11"
#20000
0#
0:
0k
0[
0l
#30000
1#
1:
1k
1[
1l
0(#
1'#
00"
02"
1."
0/"
10"
12"
13"
01"
03"
11"
#40000
0#
0:
0k
0[
0l
#50000
1#
1:
1k
1[
1l
1(#
0."
1/"
00"
02"
13"
01"
#60000
0#
0:
0k
0[
0l
#70000
1#
1:
1k
1[
1l
0(#
0'#
1&#
03"
14"
10"
12"
1."
0/"
00"
13"
04"
11"
15"
16"
05"
01"
06"
#80000
0#
0.
0:
0;
0u
0k
0[
0{
1.!
16!
0l
17!
#90000
1#
1:
1k
1[
1l
1+#
1(#
0."
1/"
1n
1q
15!
1r
10"
11"
1s
#100000
0#
0:
0k
0[
0l
#110000
1#
1:
1k
1[
1l
10#
0(#
1'#
00"
02"
1."
0/"
1m
0s
10"
12"
03"
14"
01"
15"
13"
04"
11"
05"
16"
06"
#120000
0#
0:
0k
0[
0l
#130000
1#
1:
1k
1[
1l
1/#
00#
1(#
0."
1/"
1s
0p
1v
1w
0q
0.!
00"
02"
03"
14"
01"
06!
0r
1y
0m
0s
07!
15"
16"
#140000
0#
0:
0k
0[
0l
#150000
1#
1:
1k
1[
1l
0/#
1*#
0+#
0(#
0'#
0&#
1%#
05"
08"
13"
04"
10"
12"
1."
0/"
05!
1r
1|
1/!
16!
1p
0v
17!
1s
06!
00"
03"
11"
15"
18"
19"
06"
1:"
09"
16"
01"
07!
0:"
#160000
0#
0:
0k
0[
0l
#170000
1#
1:
1k
1[
1l
10#
1(#
0."
1/"
17"
1m
0s
10"
11"
#180000
0#
0:
0k
0[
0l
#190000
1#
1:
1k
1[
1l
1/#
00#
0(#
1'#
00"
02"
1."
0/"
07"
1s
0p
1v
10"
12"
13"
01"
03"
11"
#200000
0#
1.
0:
1;
1u
0k
0[
0v
1{
0$!
0l
#210000
1#
1:
1k
1[
1l
10#
1(#
0."
1/"
0m
1o
1p
0s
1$!
00"
02"
13"
01"
#220000
0#
0:
0k
0[
0l
#230000
1#
1:
1k
1[
1l
0/#
1.#
00#
0(#
0'#
1&#
03"
14"
10"
12"
1."
0/"
1s
00"
13"
04"
11"
05"
08"
19"
06"
15"
18"
01"
09"
16"
1:"
0:"
#240000
0#
0:
0k
0[
0l
#250000
1#
1:
1k
1[
1l
10#
1(#
0."
1/"
1m
0s
1t
0n
0r
1}
10!
19!
10"
11"
1A!
0m
0o
1E!
#260000
0#
0:
0k
0[
0l
#270000
1#
1:
1k
1[
1l
0.#
00#
1~
13#
1F!
0(#
1'#
00"
02"
1."
0/"
0G!
0q!
00!
11!
1:!
0A!
0}
0t
1n
1r
1}
10!
01!
09!
1?!
0#"
10"
12"
03"
14"
01"
05"
08"
13"
04"
11"
0:!
1s
0?!
15"
18"
19"
06"
1:"
09"
16"
0:"
#280000
0#
0:
0k
0[
0l
#290000
1#
1:
1k
1[
1l
10#
1(#
0."
1/"
1m
0s
00"
02"
03"
14"
01"
05"
08"
19"
06"
1:"
#300000
0#
0:
0k
0[
0l
#310000
1#
1:
1k
1[
1l
1/#
00#
0(#
0'#
0&#
0%#
1$#
09"
1;"
15"
18"
13"
04"
10"
12"
1."
0/"
1s
0p
0$!
00"
03"
11"
05"
19"
0;"
16"
1<"
0:"
1="
0<"
1:"
06"
01"
0="
#320000
0#
0.
0:
0;
0u
0k
0[
1v
0{
1$!
0l
#330000
1#
1:
1k
1[
1l
10#
1(#
0."
1/"
0m
1o
1p
0s
0v
10"
11"
#340000
0#
0:
0k
0[
0l
#350000
1#
1:
1k
1[
1l
0/#
1.#
00#
0(#
1'#
00"
02"
1."
0/"
1s
10"
12"
13"
01"
03"
11"
#360000
0#
0:
0k
0[
0l
#370000
1#
1:
1k
1[
1l
10#
1(#
0."
1/"
1m
0s
1t
0n
0r
00!
11!
19!
00"
02"
13"
01"
1:!
0m
0o
#380000
0#
0:
0k
0[
0l
#390000
1#
1:
1k
1[
1l
0.#
00#
03#
12#
0(#
0'#
1&#
03"
14"
10"
12"
1."
0/"
0>!
10!
0:!
1b!
0t
1n
1r
00!
09!
00"
13"
04"
11"
15"
16"
05"
01"
0b!
1s
06"
#400000
0#
0:
0k
0[
0l
#410000
1#
1:
1k
1[
1l
10#
1(#
0."
1/"
1m
0s
10"
11"
#420000
0#
0:
0k
0[
0l
#430000
1#
1:
1k
1[
1l
1/#
00#
0(#
1'#
00"
02"
1."
0/"
1s
0p
1v
10"
12"
03"
14"
01"
15"
13"
04"
11"
05"
16"
06"
#440000
0#
1.
0:
1;
1u
0k
0[
0v
1{
0$!
0l
#450000
1#
1:
1k
1[
1l
10#
1(#
0."
1/"
0m
1o
1p
0s
1$!
00"
02"
03"
14"
01"
15"
16"
#460000
0#
0:
0k
0[
0l
#470000
1#
1:
1k
1[
1l
0/#
1.#
00#
0(#
0'#
0&#
1%#
05"
08"
13"
04"
10"
12"
1."
0/"
1s
00"
03"
11"
15"
18"
09"
1;"
06"
1<"
0:"
19"
0;"
16"
01"
0<"
1:"
1="
0="
#480000
0#
0:
0k
0[
0l
#490000
1#
1:
1k
1[
1l
10#
1(#
0."
1/"
17"
1m
0s
1t
12!
0n
0r
0}
10!
19!
10"
11"
1b!
0m
0o
1c!
#500000
0#
0:
0k
0[
0l
#510000
1#
1:
1k
1[
1l
0.#
00#
0~
13#
1d!
0(#
1'#
00"
02"
1."
0/"
07"
0i!
0""
00!
01!
13!
1:!
1_!
0b!
1}
0t
02!
03!
1n
1r
0}
10!
11!
09!
1e!
10"
12"
13"
01"
03"
11"
0:!
0_!
1s
0e!
#520000
0#
0:
0k
0[
0l
#530000
1#
1:
1k
1[
1l
10#
1(#
0."
1/"
1m
0s
00"
02"
13"
01"
#540000
0#
0:
0k
0[
0l
#550000
1#
1:
1k
1[
1l
1/#
00#
0(#
0'#
1&#
03"
14"
10"
12"
1."
0/"
1s
0p
0$!
00"
13"
04"
11"
05"
08"
09"
1;"
06"
15"
18"
01"
19"
0;"
16"
1<"
0:"
1="
0<"
1:"
0="
#560000
0#
0:
0k
0[
0l
#570000
1#
1:
1k
1[
1l
10#
1(#
0."
1/"
0m
1o
1p
0s
1$!
10"
11"
#580000
0#
0:
0k
0[
0l
#590000
1#
1:
1k
1[
1l
0/#
1.#
00#
0(#
1'#
00"
02"
1."
0/"
1s
10"
12"
03"
14"
01"
05"
08"
13"
04"
11"
15"
18"
09"
1;"
06"
1<"
0:"
19"
0;"
16"
0<"
1:"
1="
0="
#600000
0#
0:
0k
0[
0l
#610000
1#
1:
1k
1[
1l
10#
1(#
0."
1/"
1m
0s
1t
12!
13!
0n
0r
1}
00!
01!
19!
00"
02"
03"
14"
01"
1:!
1_!
0m
0o
1e!
05"
08"
09"
1;"
06"
1<"
0:"
1="
#620000
0#
0:
0k
0[
0l
#630000
1#
1:
1k
1[
1l
0.#
00#
1~
03#
02#
11#
1f!
0(#
0'#
0&#
0%#
0$#
1##
0<"
0>"
19"
0;"
15"
18"
13"
04"
10"
12"
1."
0/"
1>!
10!
0:!
1V!
0_!
0}
0t
02!
1n
1r
1}
00!
09!
1[!
00"
03"
11"
05"
09"
16"
1<"
1>"
1:"
1?"
0="
1@"
0?"
1="
0:"
06"
01"
0V!
1s
0[!
0@"
#640000
0#
0:
0k
0[
0l
#650000
1#
1:
1k
1[
1l
10#
1(#
0."
1/"
1m
0s
10"
11"
#660000
0#
0:
0k
0[
0l
#670000
1#
1:
1k
1[
1l
1/#
00#
0(#
1'#
00"
02"
1."
0/"
1s
0p
0$!
10"
12"
13"
01"
03"
11"
#680000
0#
0:
0k
0[
0l
#690000
1#
1:
1k
1[
1l
10#
1(#
0."
1/"
0m
1o
1p
0s
1$!
00"
02"
13"
01"
#700000
0#
0:
0k
0[
0l
#710000
1#
1:
1k
1[
1l
0/#
1.#
00#
0(#
0'#
1&#
03"
14"
10"
12"
1."
0/"
1s
00"
13"
04"
11"
15"
16"
05"
01"
06"
#720000
0#
0:
0k
0[
0l
#730000
1#
1:
1k
1[
1l
10#
1(#
0."
1/"
1m
0s
1t
0n
0r
0}
10!
19!
10"
11"
1V!
0m
0o
1[!
#740000
0#
0:
0k
0[
0l
#750000
1#
1:
1k
1[
1l
0.#
00#
0~
13#
1\!
0(#
1'#
00"
02"
1."
0/"
0]!
0v!
00!
11!
14!
1S!
0V!
1}
0t
1n
1r
0}
10!
01!
09!
1T!
10"
12"
03"
14"
01"
15"
13"
04"
11"
0S!
1s
0T!
05"
16"
06"
#760000
0#
0:
0k
0[
0l
#770000
1#
1:
1k
1[
1l
10#
1(#
0."
1/"
1m
0s
00"
02"
03"
14"
01"
15"
16"
#780000
0#
0:
0k
0[
0l
#790000
1#
1:
1k
1[
1l
1/#
00#
0(#
0'#
0&#
1%#
05"
08"
13"
04"
10"
12"
1."
0/"
1s
0p
0$!
00"
03"
11"
15"
18"
19"
06"
1:"
09"
16"
01"
0:"
#800000
0#
0.
0:
0;
0u
0k
0[
1v
0{
1$!
0l
#810000
1#
1:
1k
1[
1l
10#
1(#
0."
1/"
17"
0m
1o
1p
0s
0v
10"
11"
#820000
0#
0:
0k
0[
0l
#830000
1#
1:
1k
1[
1l
0/#
1.#
00#
0(#
1'#
00"
02"
1."
0/"
07"
1s
10"
12"
13"
01"
03"
11"
#840000
0#
0:
0k
0[
0l
#850000
1#
1:
1k
1[
1l
10#
1(#
0."
1/"
1m
0s
1t
0n
0r
00!
11!
19!
00"
02"
13"
01"
1S!
0m
0o
#860000
0#
0:
0k
0[
0l
#870000
1#
1:
1k
1[
1l
0.#
00#
03#
12#
0(#
0'#
1&#
03"
14"
10"
12"
1."
0/"
15!
0>!
10!
04!
1M!
0S!
0t
1n
1r
00!
09!
05!
16!
00"
13"
04"
11"
05"
08"
19"
06"
15"
18"
01"
17!
06!
0M!
1s
07!
09"
16"
1:"
0:"
#880000
0#
0:
0k
0[
0l
#890000
1#
1:
1k
1[
1l
10#
1(#
0."
1/"
1m
0s
10"
11"
#900000
0#
0:
0k
0[
0l
#910000
1#
1:
1k
1[
1l
1/#
00#
0(#
1'#
00"
02"
1."
0/"
1s
0p
1v
10"
12"
03"
14"
01"
05"
08"
13"
04"
11"
15"
18"
19"
06"
1:"
09"
16"
0:"
#920000
0#
1.
0:
1;
1u
0k
0[
0v
1{
0$!
0l
#930000
1#
1:
1k
1[
1l
10#
1(#
0."
1/"
0m
1o
1p
0s
1$!
00"
02"
03"
14"
01"
05"
08"
19"
06"
1:"
#940000
0#
0:
0k
0[
0l
#950000
1#
1:
1k
1[
1l
0/#
1.#
00#
0(#
0'#
0&#
0%#
1$#
09"
1;"
15"
18"
13"
04"
10"
12"
1."
0/"
1s
00"
03"
11"
05"
19"
0;"
16"
0<"
0>"
0:"
1?"
0="
1<"
1>"
1:"
06"
01"
0?"
1="
1@"
0@"
#960000
0#
0:
0k
0[
0l
#970000
1#
1:
1k
1[
1l
10#
1(#
0."
1/"
1m
0s
1t
12!
0n
0r
1}
10!
19!
10"
11"
1M!
0m
0o
1N!
#980000
0#
0:
0k
0[
0l
#990000
1#
1:
1k
1[
1l
0.#
00#
1~
13#
1O!
0(#
1'#
00"
02"
1."
0/"
0R!
0{!
00!
01!
03!
14!
1H!
0M!
1S!
0}
0t
02!
13!
1n
1r
1}
10!
11!
09!
1K!
10"
12"
13"
01"
03"
11"
0H!
0S!
1s
0K!
#1000000
0#
0:
0k
0[
0l
#1010000
1#
1:
1k
1[
1l
10#
1(#
0."
1/"
1m
0s
00"
02"
13"
01"
#1020000
0#
0:
0k
0[
0l
